  <svg

      xmlns="http://www.w3.org/2000/svg"
      xml:space="preserve"
      viewBox="0 0 129.266 77.217"
    >
      <path
        d="M-141.011-66.337s-.913 4.782 6.028 9.896c6.94 5.114 13.545 4.922 24.476 19.179 8.542 11.142 1.153 34.425 22.062 44.934 20.394 10.249 32.16-7.25 45.52-8.22 31.14-2.261 31.14-15.383 31.14-15.383v-50.406z"
        style="
          opacity: 1;
          fill: #e28f83;
          stroke-width: 0.3175;
          stroke-linecap: round;
          stroke-linejoin: round;
        "
        transform="translate(141.05 66.337)"
      />
    </svg>